EESchema Schematic File Version 4
EELAYER 30 0
EELAYER END
$Descr A4 11693 8268
encoding utf-8
Sheet 1 1
Title "Dragon 32/64 Power Supply Board ISS4"
Date "2020-11-07"
Rev "A"
Comp "Original design by Dragon Data Ltd ca 1982"
Comment1 "Captured into KiCad by Stewart Orchard"
Comment2 ""
Comment3 ""
Comment4 ""
$EndDescr
$Comp
L Connector_Generic:Conn_01x09 PL9
U 1 1 5FA5ACE7
P 1550 2150
F 0 "PL9" H 1550 2700 50  0000 C CNN
F 1 "DE9 D-SUB PLUG" H 1550 2800 50  0000 C CNN
F 2 "ISS4PSU:DSUB-9_Male_Horizontal_P2.77x2.54mm_EdgePinOffset9.90mm_Housed_MountingHolesOffset11.32mm_AMPHENOL_D09P13B4PA00LF" H 1550 2150 50  0001 C CNN
F 3 "~" H 1550 2150 50  0001 C CNN
	1    1550 2150
	-1   0    0    -1  
$EndComp
$Comp
L ISS4PSU:SW_Push_4PCO SW1
U 1 1 5FA631AE
P 3000 1950
F 0 "SW1" H 3000 2435 50  0000 C CNN
F 1 "ALPS SPUN19C400" H 3000 2344 50  0000 C CNN
F 2 "ISS4PSU:ALPS_SPUN19C400" H 3000 2150 50  0001 C CNN
F 3 "~" H 3000 2150 50  0001 C CNN
	1    3000 1950
	1    0    0    -1  
$EndComp
$Comp
L power:GND #PWR0101
U 1 1 5FA67AB1
P 1800 2650
F 0 "#PWR0101" H 1800 2400 50  0001 C CNN
F 1 "GND" H 1805 2477 50  0000 C CNN
F 2 "" H 1800 2650 50  0001 C CNN
F 3 "" H 1800 2650 50  0001 C CNN
	1    1800 2650
	1    0    0    -1  
$EndComp
NoConn ~ 3200 1650
NoConn ~ 3200 2050
NoConn ~ 3200 2450
NoConn ~ 3200 2850
$Comp
L Diode:1N4002 D3
U 1 1 5FA6A887
P 3900 3450
F 0 "D3" H 4050 3350 50  0000 C CNN
F 1 "1N4002" H 3800 3350 50  0000 C CNN
F 2 "Diode_THT:D_DO-41_SOD81_P10.16mm_Horizontal" H 3900 3275 50  0001 C CNN
F 3 "http://www.vishay.com/docs/88503/1n4001.pdf" H 3900 3450 50  0001 C CNN
	1    3900 3450
	0    1    1    0   
$EndComp
$Comp
L Diode:1N4002 D4
U 1 1 5FA6B3A7
P 3650 3450
F 0 "D4" H 3800 3350 50  0000 C CNN
F 1 "1N4002" H 3550 3350 50  0000 C CNN
F 2 "Diode_THT:D_DO-41_SOD81_P10.16mm_Horizontal" H 3650 3275 50  0001 C CNN
F 3 "http://www.vishay.com/docs/88503/1n4001.pdf" H 3650 3450 50  0001 C CNN
	1    3650 3450
	0    1    1    0   
$EndComp
$Comp
L Diode:1N4002 D7
U 1 1 5FA6BAB5
P 3900 1350
F 0 "D7" H 4050 1250 50  0000 C CNN
F 1 "1N4002" H 3800 1250 50  0000 C CNN
F 2 "Diode_THT:D_DO-41_SOD81_P10.16mm_Horizontal" H 3900 1175 50  0001 C CNN
F 3 "http://www.vishay.com/docs/88503/1n4001.pdf" H 3900 1350 50  0001 C CNN
	1    3900 1350
	0    1    1    0   
$EndComp
$Comp
L Diode:1N4002 D8
U 1 1 5FA6BF4D
P 3650 1350
F 0 "D8" H 3800 1250 50  0000 C CNN
F 1 "1N4002" H 3550 1250 50  0000 C CNN
F 2 "Diode_THT:D_DO-41_SOD81_P10.16mm_Horizontal" H 3650 1175 50  0001 C CNN
F 3 "http://www.vishay.com/docs/88503/1n4001.pdf" H 3650 1350 50  0001 C CNN
	1    3650 1350
	0    1    1    0   
$EndComp
$Comp
L Diode:1N5401 D1
U 1 1 5FA6C59C
P 4700 2600
F 0 "D1" H 4550 2700 50  0000 C CNN
F 1 "1N5401" H 4800 2700 50  0000 C CNN
F 2 "Diode_THT:D_DO-201AD_P15.24mm_Horizontal" H 4700 2425 50  0001 C CNN
F 3 "http://www.vishay.com/docs/88516/1n5400.pdf" H 4700 2600 50  0001 C CNN
	1    4700 2600
	1    0    0    -1  
$EndComp
$Comp
L Diode:1N5401 D2
U 1 1 5FA6D4FF
P 4700 2800
F 0 "D2" H 4550 2900 50  0000 C CNN
F 1 "1N5401" H 4800 2900 50  0000 C CNN
F 2 "Diode_THT:D_DO-201AD_P15.24mm_Horizontal" H 4700 2625 50  0001 C CNN
F 3 "http://www.vishay.com/docs/88516/1n5400.pdf" H 4700 2800 50  0001 C CNN
	1    4700 2800
	1    0    0    -1  
$EndComp
$Comp
L Diode:1N5401 D5
U 1 1 5FA6DF6A
P 4700 2300
F 0 "D5" H 4850 2200 50  0000 C CNN
F 1 "1N5401" H 4600 2200 50  0000 C CNN
F 2 "Diode_THT:D_DO-201AD_P15.24mm_Horizontal" H 4700 2125 50  0001 C CNN
F 3 "http://www.vishay.com/docs/88516/1n5400.pdf" H 4700 2300 50  0001 C CNN
	1    4700 2300
	-1   0    0    1   
$EndComp
$Comp
L Diode:1N5401 D6
U 1 1 5FA6E6DB
P 4700 2100
F 0 "D6" H 4850 2000 50  0000 C CNN
F 1 "1N5401" H 4600 2000 50  0000 C CNN
F 2 "Diode_THT:D_DO-201AD_P15.24mm_Horizontal" H 4700 1925 50  0001 C CNN
F 3 "http://www.vishay.com/docs/88516/1n5400.pdf" H 4700 2100 50  0001 C CNN
	1    4700 2100
	-1   0    0    1   
$EndComp
$Comp
L Regulator_Linear:LM7812_TO220 REG2
U 1 1 5FA716CF
P 5500 1050
F 0 "REG2" H 5500 1292 50  0000 C CNN
F 1 "LM7812" H 5500 1201 50  0000 C CNN
F 2 "Package_TO_SOT_THT:TO-220-3_Horizontal_TabDown" H 5525 900 50  0001 L CIN
F 3 "http://www.fairchildsemi.com/ds/LM/LM7805.pdf" H 5500 1000 50  0001 C CNN
	1    5500 1050
	1    0    0    -1  
$EndComp
$Comp
L Device:C C1
U 1 1 5FA72873
P 6600 3500
F 0 "C1" H 6715 3546 50  0000 L CNN
F 1 "100n" H 6715 3455 50  0000 L CNN
F 2 "Capacitor_THT:C_Rect_L16.5mm_W6.0mm_P15.00mm_MKT" H 6638 3350 50  0001 C CNN
F 3 "~" H 6600 3500 50  0001 C CNN
	1    6600 3500
	1    0    0    -1  
$EndComp
$Comp
L Device:C C2
U 1 1 5FA72E2E
P 5350 2450
F 0 "C2" H 5465 2496 50  0000 L CNN
F 1 "100n" H 5465 2405 50  0000 L CNN
F 2 "Capacitor_THT:C_Disc_D7.5mm_W5.0mm_P7.50mm" H 5388 2300 50  0001 C CNN
F 3 "~" H 5350 2450 50  0001 C CNN
	1    5350 2450
	1    0    0    -1  
$EndComp
$Comp
L Device:C C3
U 1 1 5FA73079
P 7400 2450
F 0 "C3" H 7515 2496 50  0000 L CNN
F 1 "100n" H 7515 2405 50  0000 L CNN
F 2 "Capacitor_THT:C_Rect_L16.5mm_W6.0mm_P15.00mm_MKT" H 7438 2300 50  0001 C CNN
F 3 "~" H 7400 2450 50  0001 C CNN
	1    7400 2450
	1    0    0    -1  
$EndComp
$Comp
L Device:C C4
U 1 1 5FA733D1
P 6000 1300
F 0 "C4" H 6115 1346 50  0000 L CNN
F 1 "100n" H 6115 1255 50  0000 L CNN
F 2 "Capacitor_THT:C_Rect_L16.5mm_W6.0mm_P15.00mm_MKT" H 6038 1150 50  0001 C CNN
F 3 "~" H 6000 1300 50  0001 C CNN
	1    6000 1300
	1    0    0    -1  
$EndComp
$Comp
L Device:C C7
U 1 1 5FA737C2
P 5550 3500
F 0 "C7" H 5665 3546 50  0000 L CNN
F 1 "100n" H 5665 3455 50  0000 L CNN
F 2 "Capacitor_THT:C_Disc_D7.5mm_W5.0mm_P7.50mm" H 5588 3350 50  0001 C CNN
F 3 "~" H 5550 3500 50  0001 C CNN
	1    5550 3500
	1    0    0    -1  
$EndComp
$Comp
L Device:CP C5
U 1 1 5FA73EBF
P 4850 3500
F 0 "C5" H 4968 3546 50  0000 L CNN
F 1 "220u" H 4968 3455 50  0000 L CNN
F 2 "Capacitor_THT:CP_Axial_L25.0mm_D10.0mm_P30.00mm_Horizontal" H 4888 3350 50  0001 C CNN
F 3 "~" H 4850 3500 50  0001 C CNN
	1    4850 3500
	1    0    0    -1  
$EndComp
$Comp
L Device:CP C6
U 1 1 5FA7475F
P 5800 2450
F 0 "C6" H 5918 2496 50  0000 L CNN
F 1 "4700u" H 5918 2405 50  0000 L CNN
F 2 "Capacitor_THT:CP_Axial_L38.0mm_D18.0mm_P44.00mm_Horizontal" H 5838 2300 50  0001 C CNN
F 3 "~" H 5800 2450 50  0001 C CNN
	1    5800 2450
	1    0    0    -1  
$EndComp
$Comp
L Device:CP C9
U 1 1 5FA74AD2
P 6300 2450
F 0 "C9" H 6418 2496 50  0000 L CNN
F 1 "4700u" H 6418 2405 50  0000 L CNN
F 2 "Capacitor_THT:CP_Axial_L38.0mm_D18.0mm_P44.00mm_Horizontal" H 6338 2300 50  0001 C CNN
F 3 "~" H 6300 2450 50  0001 C CNN
	1    6300 2450
	1    0    0    -1  
$EndComp
$Comp
L Device:CP C8
U 1 1 5FA74D25
P 4950 1300
F 0 "C8" H 5068 1346 50  0000 L CNN
F 1 "470u" H 5068 1255 50  0000 L CNN
F 2 "Capacitor_THT:CP_Axial_L29.0mm_D13.0mm_P35.00mm_Horizontal" H 4988 1150 50  0001 C CNN
F 3 "~" H 4950 1300 50  0001 C CNN
	1    4950 1300
	1    0    0    -1  
$EndComp
$Comp
L Device:R R2
U 1 1 5FA75317
P 7000 3500
F 0 "R2" H 7070 3546 50  0000 L CNN
F 1 "10K" H 7070 3455 50  0000 L CNN
F 2 "Resistor_THT:R_Axial_DIN0309_L9.0mm_D3.2mm_P12.70mm_Horizontal" V 6930 3500 50  0001 C CNN
F 3 "~" H 7000 3500 50  0001 C CNN
	1    7000 3500
	1    0    0    -1  
$EndComp
$Comp
L Device:R R3
U 1 1 5FA7595B
P 7800 2450
F 0 "R3" H 7870 2496 50  0000 L CNN
F 1 "1K" H 7870 2405 50  0000 L CNN
F 2 "Resistor_THT:R_Axial_DIN0309_L9.0mm_D3.2mm_P12.70mm_Horizontal" V 7730 2450 50  0001 C CNN
F 3 "~" H 7800 2450 50  0001 C CNN
	1    7800 2450
	1    0    0    -1  
$EndComp
$Comp
L Device:R R4
U 1 1 5FA75C16
P 6400 1300
F 0 "R4" H 6470 1346 50  0000 L CNN
F 1 "10K" H 6470 1255 50  0000 L CNN
F 2 "Resistor_THT:R_Axial_DIN0309_L9.0mm_D3.2mm_P12.70mm_Horizontal" V 6330 1300 50  0001 C CNN
F 3 "~" H 6400 1300 50  0001 C CNN
	1    6400 1300
	1    0    0    -1  
$EndComp
$Comp
L Device:R R5
U 1 1 5FA75E79
P 5150 3750
F 0 "R5" V 5050 3750 50  0000 L CNN
F 1 "180R" V 4950 3650 50  0000 L CNN
F 2 "Resistor_THT:R_Axial_DIN0516_L15.5mm_D5.0mm_P20.32mm_Horizontal" V 5080 3750 50  0001 C CNN
F 3 "~" H 5150 3750 50  0001 C CNN
	1    5150 3750
	0    -1   -1   0   
$EndComp
$Comp
L Connector_Generic:Conn_01x09 PL10
U 1 1 5FA76B00
P 9900 2900
F 0 "PL10" H 9818 2275 50  0000 C CNN
F 1 "9 WAY 3.96 PITCH CONNECTOR" H 9818 2366 50  0000 C CNN
F 2 "ISS4PSU:Header_9W_P3.96mm" H 9900 2900 50  0001 C CNN
F 3 "~" H 9900 2900 50  0001 C CNN
	1    9900 2900
	1    0    0    -1  
$EndComp
$Comp
L ISS4PSU:LM309_TO3 REG1
U 1 1 5FA7A2F5
P 6950 2200
F 0 "REG1" H 6950 2442 50  0000 C CNN
F 1 "LM309" H 6950 2351 50  0000 C CNN
F 2 "Package_TO_SOT_THT:TO-3" H 6950 2400 50  0001 C CIN
F 3 "https://www.ti.com/lit/ds/symlink/lm309.pdf" H 6950 2200 50  0001 C CNN
	1    6950 2200
	1    0    0    -1  
$EndComp
Wire Wire Line
	4550 2300 4400 2300
Wire Wire Line
	4400 2300 4400 2600
Wire Wire Line
	4550 2100 4200 2100
Wire Wire Line
	4200 2800 4550 2800
$Comp
L power:GND #PWR0102
U 1 1 5FA8CAD8
P 6650 2750
F 0 "#PWR0102" H 6650 2500 50  0001 C CNN
F 1 "GND" H 6655 2577 50  0000 C CNN
F 2 "" H 6650 2750 50  0001 C CNN
F 3 "" H 6650 2750 50  0001 C CNN
	1    6650 2750
	1    0    0    -1  
$EndComp
Wire Wire Line
	3650 1200 3650 1050
Wire Wire Line
	4950 1150 4950 1050
Connection ~ 4950 1050
Wire Wire Line
	4950 1050 5200 1050
Wire Wire Line
	5800 1050 6000 1050
Wire Wire Line
	6400 1150 6400 1050
Wire Wire Line
	6000 1150 6000 1050
Connection ~ 6000 1050
Wire Wire Line
	6000 1050 6400 1050
Wire Wire Line
	4850 1550 4950 1550
Wire Wire Line
	6400 1450 6400 1550
Connection ~ 6400 1550
Wire Wire Line
	6400 1550 6500 1550
Wire Wire Line
	6000 1450 6000 1550
Connection ~ 6000 1550
Wire Wire Line
	6000 1550 6400 1550
Wire Wire Line
	5500 1350 5500 1550
Connection ~ 5500 1550
Wire Wire Line
	5500 1550 5700 1550
Wire Wire Line
	4950 1450 4950 1550
Connection ~ 4950 1550
Wire Wire Line
	4950 1550 5500 1550
$Comp
L power:GND #PWR0103
U 1 1 5FA7752F
P 5700 1600
F 0 "#PWR0103" H 5700 1350 50  0001 C CNN
F 1 "GND" H 5705 1427 50  0000 C CNN
F 2 "" H 5700 1600 50  0001 C CNN
F 3 "" H 5700 1600 50  0001 C CNN
	1    5700 1600
	1    0    0    -1  
$EndComp
Wire Wire Line
	5700 1600 5700 1550
Connection ~ 5700 1550
Wire Wire Line
	5700 1550 6000 1550
Wire Wire Line
	3900 1200 3900 1050
Wire Wire Line
	3650 1050 3900 1050
Wire Wire Line
	7250 2200 7400 2200
Wire Wire Line
	7800 2300 7800 2200
Connection ~ 7800 2200
Wire Wire Line
	7800 2200 8100 2200
Wire Wire Line
	7400 2300 7400 2200
Connection ~ 7400 2200
Wire Wire Line
	7400 2200 7800 2200
Wire Wire Line
	4850 2100 5050 2100
Wire Wire Line
	4850 2300 5050 2300
Wire Wire Line
	5050 2300 5050 2200
Connection ~ 5050 2200
Wire Wire Line
	5050 2200 5200 2200
Wire Wire Line
	5350 2300 5350 2200
Connection ~ 5350 2200
Wire Wire Line
	5350 2200 5800 2200
Wire Wire Line
	5800 2300 5800 2200
Connection ~ 5800 2200
Wire Wire Line
	6300 2300 6300 2200
Connection ~ 6300 2200
Wire Wire Line
	6300 2200 6650 2200
Wire Wire Line
	5050 2700 5350 2700
Wire Wire Line
	7800 2600 7800 2700
Connection ~ 7800 2700
Wire Wire Line
	7800 2700 7900 2700
Wire Wire Line
	7400 2600 7400 2700
Connection ~ 7400 2700
Wire Wire Line
	7400 2700 7800 2700
Wire Wire Line
	6950 2500 6950 2700
Connection ~ 6950 2700
Wire Wire Line
	6950 2700 7400 2700
Wire Wire Line
	6300 2600 6300 2700
Connection ~ 6300 2700
Wire Wire Line
	6300 2700 6650 2700
Wire Wire Line
	5800 2600 5800 2700
Connection ~ 5800 2700
Wire Wire Line
	5350 2600 5350 2700
Connection ~ 5350 2700
Wire Wire Line
	5350 2700 5800 2700
Wire Wire Line
	6650 2750 6650 2700
Connection ~ 6650 2700
Wire Wire Line
	6650 2700 6950 2700
Wire Wire Line
	6450 3750 6600 3750
Wire Wire Line
	7000 3650 7000 3750
Connection ~ 7000 3750
Wire Wire Line
	7000 3750 7400 3750
Wire Wire Line
	6600 3650 6600 3750
Connection ~ 6600 3750
Wire Wire Line
	6600 3750 7000 3750
Wire Wire Line
	5550 3650 5550 3750
Connection ~ 5550 3750
Wire Wire Line
	5550 3750 5300 3750
Wire Wire Line
	7100 3250 7000 3250
Wire Wire Line
	4850 3350 4850 3250
Connection ~ 4850 3250
Wire Wire Line
	4850 3250 4750 3250
Wire Wire Line
	5550 3350 5550 3250
Connection ~ 5550 3250
Wire Wire Line
	5550 3250 4850 3250
Wire Wire Line
	6600 3350 6600 3250
Connection ~ 6600 3250
Wire Wire Line
	6600 3250 6150 3250
Wire Wire Line
	7000 3350 7000 3250
Connection ~ 7000 3250
Wire Wire Line
	7000 3250 6600 3250
Wire Wire Line
	6150 3450 6150 3250
Connection ~ 6150 3250
Wire Wire Line
	6150 3250 5950 3250
$Comp
L power:GND #PWR0104
U 1 1 5FAB1363
P 5950 3300
F 0 "#PWR0104" H 5950 3050 50  0001 C CNN
F 1 "GND" H 5955 3127 50  0000 C CNN
F 2 "" H 5950 3300 50  0001 C CNN
F 3 "" H 5950 3300 50  0001 C CNN
	1    5950 3300
	1    0    0    -1  
$EndComp
Wire Wire Line
	5950 3300 5950 3250
Connection ~ 5950 3250
Wire Wire Line
	5950 3250 5550 3250
Wire Wire Line
	4850 2800 5050 2800
Wire Wire Line
	5050 2800 5050 2700
Wire Wire Line
	5050 2600 4850 2600
Connection ~ 5050 2700
Wire Wire Line
	5050 2700 5050 2600
Connection ~ 3900 1050
Wire Wire Line
	5000 3750 4850 3750
Wire Wire Line
	3650 3750 3650 3600
Wire Wire Line
	3900 3600 3900 3750
Connection ~ 3900 3750
Wire Wire Line
	3900 3750 3650 3750
Wire Wire Line
	4850 3650 4850 3750
Connection ~ 4850 3750
Wire Wire Line
	4850 3750 3900 3750
Text GLabel 6700 1050 2    50   Output ~ 0
+12V
Wire Wire Line
	6700 1050 6400 1050
Connection ~ 6400 1050
Text GLabel 8100 2200 2    50   Output ~ 0
+5V
Text GLabel 7400 3750 2    50   Output ~ 0
-5V
Text GLabel 9550 2500 0    50   Input ~ 0
+12V
Text GLabel 9550 2600 0    50   Input ~ 0
+5V
Text GLabel 9550 2700 0    50   Input ~ 0
-5V
Wire Wire Line
	9550 2500 9700 2500
Wire Wire Line
	9550 2600 9700 2600
Wire Wire Line
	9550 2700 9700 2700
$Comp
L power:GND #PWR0105
U 1 1 5FBC5073
P 8950 3000
F 0 "#PWR0105" H 8950 2750 50  0001 C CNN
F 1 "GND" H 8955 2827 50  0000 C CNN
F 2 "" H 8950 3000 50  0001 C CNN
F 3 "" H 8950 3000 50  0001 C CNN
	1    8950 3000
	1    0    0    -1  
$EndComp
Wire Wire Line
	9700 2800 8950 2800
Wire Wire Line
	8950 2800 8950 2900
Wire Wire Line
	9700 2900 8950 2900
Connection ~ 8950 2900
Wire Wire Line
	8950 2900 8950 3000
$Comp
L power:PWR_FLAG #FLG0102
U 1 1 5FBD1C53
P 1050 7350
F 0 "#FLG0102" H 1050 7425 50  0001 C CNN
F 1 "PWR_FLAG" H 1050 7523 50  0001 C CNN
F 2 "" H 1050 7350 50  0001 C CNN
F 3 "~" H 1050 7350 50  0001 C CNN
	1    1050 7350
	1    0    0    -1  
$EndComp
Connection ~ 5200 2200
Wire Wire Line
	5200 2200 5350 2200
$Comp
L Connector:DIN-3 PL11
U 1 1 5FC32672
P 8050 4650
F 0 "PL11" H 8050 4283 50  0000 C CNN
F 1 "3 PIN DIN SOCKET" H 8050 4374 50  0000 C CNN
F 2 "ISS4PSU:DELTRON_671_0301" H 8050 4650 50  0001 C CNN
F 3 "http://www.mouser.com/ds/2/18/40_c091_abd_e-75918.pdf" H 8050 4650 50  0001 C CNN
	1    8050 4650
	-1   0    0    1   
$EndComp
$Comp
L power:GND #PWR0106
U 1 1 5FC3C8DA
P 8050 5000
F 0 "#PWR0106" H 8050 4750 50  0001 C CNN
F 1 "GND" H 8055 4827 50  0000 C CNN
F 2 "" H 8050 5000 50  0001 C CNN
F 3 "" H 8050 5000 50  0001 C CNN
	1    8050 5000
	1    0    0    -1  
$EndComp
Wire Wire Line
	8050 4950 8050 5000
Text GLabel 7600 4650 0    50   Input ~ 0
VIDEO
Text GLabel 8500 4650 2    50   Input ~ 0
SOUND
Wire Wire Line
	8350 4650 8500 4650
Wire Wire Line
	7750 4650 7600 4650
Text GLabel 9550 3000 0    50   Output ~ 0
VIDEO
Text GLabel 9550 3100 0    50   Output ~ 0
SOUND
Wire Wire Line
	9550 3000 9700 3000
Wire Wire Line
	9550 3100 9700 3100
Text GLabel 9550 3200 0    50   Output ~ 0
VID+5V
Text GLabel 9550 3300 0    50   Output ~ 0
MOD
Wire Wire Line
	9700 3200 9550 3200
Wire Wire Line
	9700 3300 9550 3300
$Comp
L Device:R R1
U 1 1 5FA755A9
P 4950 5400
F 0 "R1" H 5100 5350 50  0000 L CNN
F 1 "220R" H 5050 5450 50  0000 L CNN
F 2 "Resistor_THT:R_Axial_DIN0309_L9.0mm_D3.2mm_P12.70mm_Horizontal" V 4880 5400 50  0001 C CNN
F 3 "~" H 4950 5400 50  0001 C CNN
	1    4950 5400
	-1   0    0    1   
$EndComp
$Comp
L Device:R R6
U 1 1 5FA75A7A
P 5100 5400
F 0 "R6" H 4900 5350 50  0000 L CNN
F 1 "22K" H 4850 5450 50  0000 L CNN
F 2 "Resistor_THT:R_Axial_DIN0309_L9.0mm_D3.2mm_P12.70mm_Horizontal" V 5030 5400 50  0001 C CNN
F 3 "~" H 5100 5400 50  0001 C CNN
	1    5100 5400
	-1   0    0    1   
$EndComp
$Comp
L Device:R R7
U 1 1 5FA75C27
P 3550 4950
F 0 "R7" H 3620 4996 50  0000 L CNN
F 1 "10K" H 3620 4905 50  0000 L CNN
F 2 "Resistor_THT:R_Axial_DIN0309_L9.0mm_D3.2mm_P12.70mm_Horizontal" V 3480 4950 50  0001 C CNN
F 3 "~" H 3550 4950 50  0001 C CNN
	1    3550 4950
	1    0    0    -1  
$EndComp
$Comp
L Device:R R8
U 1 1 5FA75DB4
P 3200 5100
F 0 "R8" H 3270 5146 50  0000 L CNN
F 1 "3K3" H 3270 5055 50  0000 L CNN
F 2 "Resistor_THT:R_Axial_DIN0309_L9.0mm_D3.2mm_P12.70mm_Horizontal" V 3130 5100 50  0001 C CNN
F 3 "~" H 3200 5100 50  0001 C CNN
	1    3200 5100
	1    0    0    -1  
$EndComp
$Comp
L Device:R R9
U 1 1 5FA75F51
P 3550 5850
F 0 "R9" H 3620 5896 50  0000 L CNN
F 1 "470R" H 3620 5805 50  0000 L CNN
F 2 "Resistor_THT:R_Axial_DIN0309_L9.0mm_D3.2mm_P12.70mm_Horizontal" V 3480 5850 50  0001 C CNN
F 3 "~" H 3550 5850 50  0001 C CNN
	1    3550 5850
	1    0    0    -1  
$EndComp
$Comp
L Device:R R_VR1
U 1 1 5FA760D9
P 3050 5650
F 0 "R_VR1" H 3120 5696 50  0000 L CNN
F 1 "220R" H 3120 5605 50  0000 L CNN
F 2 "Resistor_THT:R_Axial_DIN0309_L9.0mm_D3.2mm_P12.70mm_Horizontal" V 2980 5650 50  0001 C CNN
F 3 "~" H 3050 5650 50  0001 C CNN
	1    3050 5650
	1    0    0    -1  
$EndComp
$Comp
L Device:Q_NPN_EBC T1
U 1 1 5FA93930
P 3450 5400
F 0 "T1" H 3641 5446 50  0000 L CNN
F 1 "2N2369A" H 3641 5355 50  0000 L CNN
F 2 "Package_TO_SOT_THT:TO-18-3" H 3650 5500 50  0001 C CNN
F 3 "~" H 3450 5400 50  0001 C CNN
	1    3450 5400
	1    0    0    -1  
$EndComp
$Comp
L Device:R_POT VR1
U 1 1 5FA9A9C7
P 2750 5650
F 0 "VR1" H 2680 5604 50  0000 R CNN
F 1 "1K" H 2680 5695 50  0000 R CNN
F 2 "Potentiometer_THT:Potentiometer_Piher_PT-10-V10_Vertical" H 2750 5650 50  0001 C CNN
F 3 "~" H 2750 5650 50  0001 C CNN
	1    2750 5650
	-1   0    0    1   
$EndComp
Wire Wire Line
	5100 5250 5100 5000
Text GLabel 5100 5000 1    50   Input ~ 0
SOUND
Wire Wire Line
	2400 5400 2750 5400
Wire Wire Line
	3050 4700 3200 4700
Wire Wire Line
	3200 4950 3200 4700
Connection ~ 3200 4700
Wire Wire Line
	3200 4700 3550 4700
Wire Wire Line
	3550 4800 3550 4700
Connection ~ 3550 4700
Wire Wire Line
	3550 4700 3650 4700
Wire Wire Line
	3550 5100 3550 5200
Wire Wire Line
	3200 5250 3200 5400
Connection ~ 3200 5400
Wire Wire Line
	3200 5400 3250 5400
Wire Wire Line
	3050 5500 3050 5400
Connection ~ 3050 5400
Wire Wire Line
	3050 5400 3200 5400
Wire Wire Line
	2750 5500 2750 5400
Connection ~ 2750 5400
Wire Wire Line
	2750 5400 3050 5400
Wire Wire Line
	3650 6050 3550 6050
Wire Wire Line
	2750 5800 2750 5850
Connection ~ 2750 6050
Wire Wire Line
	2750 6050 2650 6050
Wire Wire Line
	3050 5800 3050 6050
Connection ~ 3050 6050
Wire Wire Line
	3050 6050 2750 6050
Wire Wire Line
	3550 6000 3550 6050
Connection ~ 3550 6050
Wire Wire Line
	3550 6050 3250 6050
Wire Wire Line
	2600 5650 2600 5850
Wire Wire Line
	2600 5850 2750 5850
Connection ~ 2750 5850
Wire Wire Line
	2750 5850 2750 6050
Text GLabel 2400 5400 0    50   Input ~ 0
MOD
Text GLabel 3050 4700 0    50   Input ~ 0
VID+5V
$Comp
L power:GND #PWR0107
U 1 1 5FB55F69
P 3250 6050
F 0 "#PWR0107" H 3250 5800 50  0001 C CNN
F 1 "GND" H 3255 5877 50  0000 C CNN
F 2 "" H 3250 6050 50  0001 C CNN
F 3 "" H 3250 6050 50  0001 C CNN
	1    3250 6050
	1    0    0    -1  
$EndComp
Connection ~ 3250 6050
Wire Wire Line
	3250 6050 3050 6050
Text GLabel 6050 5650 2    50   Input ~ 0
+12V
$Comp
L ISS4PSU:UM1287 MODULATOR1
U 1 1 5FA99AD1
P 5050 6250
F 0 "MODULATOR1" V 5500 5900 50  0000 L CNN
F 1 "UM1287" V 5600 5900 50  0000 L CNN
F 2 "ISS4PSU:UM1287" H 4950 6650 50  0001 C CNN
F 3 "" H 4950 6650 50  0001 C CNN
	1    5050 6250
	0    1    1    0   
$EndComp
$Comp
L power:GND #PWR0108
U 1 1 5FAA36ED
P 4500 6400
F 0 "#PWR0108" H 4500 6150 50  0001 C CNN
F 1 "GND" H 4505 6227 50  0000 C CNN
F 2 "" H 4500 6400 50  0001 C CNN
F 3 "" H 4500 6400 50  0001 C CNN
	1    4500 6400
	1    0    0    -1  
$EndComp
Wire Wire Line
	5100 5550 5100 5750
Wire Wire Line
	3550 5600 3550 5650
Wire Wire Line
	3550 5650 4800 5650
Wire Wire Line
	4800 5650 4800 5750
Connection ~ 3550 5650
Wire Wire Line
	3550 5650 3550 5700
Wire Wire Line
	4600 6250 4500 6250
Wire Wire Line
	4500 6250 4500 6400
Wire Wire Line
	4950 5750 4950 5550
Wire Wire Line
	5250 5650 5250 5750
Wire Wire Line
	5950 5650 6050 5650
Text GLabel 5350 2050 2    50   Output ~ 0
+9V
Wire Wire Line
	5350 2050 5200 2050
Wire Wire Line
	5200 2050 5200 2200
Text GLabel 4250 5100 0    50   Input ~ 0
+9V
Wire Wire Line
	4850 5100 4950 5100
Wire Wire Line
	4950 5100 4950 5250
Wire Wire Line
	4350 5100 4250 5100
Wire Wire Line
	3900 1050 4950 1050
Text Label 4250 1050 0    50   ~ 0
+18V
Text Label 4300 3750 0    50   ~ 0
-18V
Text Label 1050 7350 0    50   ~ 0
+18V
$Comp
L power:PWR_FLAG #FLG0103
U 1 1 5FAA4199
P 1350 7350
F 0 "#FLG0103" H 1350 7425 50  0001 C CNN
F 1 "PWR_FLAG" H 1350 7523 50  0001 C CNN
F 2 "" H 1350 7350 50  0001 C CNN
F 3 "~" H 1350 7350 50  0001 C CNN
	1    1350 7350
	1    0    0    -1  
$EndComp
Text Label 1350 7350 0    50   ~ 0
+9V
Wire Wire Line
	5800 2200 6300 2200
$Comp
L power:PWR_FLAG #FLG0101
U 1 1 5FAA5100
P 1600 7350
F 0 "#FLG0101" H 1600 7425 50  0001 C CNN
F 1 "PWR_FLAG" H 1600 7523 50  0001 C CNN
F 2 "" H 1600 7350 50  0001 C CNN
F 3 "~" H 1600 7350 50  0001 C CNN
	1    1600 7350
	1    0    0    -1  
$EndComp
Wire Wire Line
	5800 2700 6300 2700
Wire Wire Line
	5550 3750 5850 3750
$Comp
L Regulator_Linear:LM7905_TO220 REG3
U 1 1 5FA709A8
P 6150 3750
F 0 "REG3" H 6150 3601 50  0000 C CNN
F 1 "LM7905" H 6150 3510 50  0000 C CNN
F 2 "Package_TO_SOT_THT:TO-220-3_Vertical" H 6150 3550 50  0001 C CIN
F 3 "http://www.fairchildsemi.com/ds/LM/LM7905.pdf" H 6150 3750 50  0001 C CNN
	1    6150 3750
	1    0    0    -1  
$EndComp
Text Label 5300 3750 0    50   ~ 0
-VE
$Comp
L power:PWR_FLAG #FLG0104
U 1 1 5FB10439
P 1850 7350
F 0 "#FLG0104" H 1850 7425 50  0001 C CNN
F 1 "PWR_FLAG" H 1850 7523 50  0001 C CNN
F 2 "" H 1850 7350 50  0001 C CNN
F 3 "~" H 1850 7350 50  0001 C CNN
	1    1850 7350
	1    0    0    -1  
$EndComp
Text Label 1850 7350 0    50   ~ 0
-VE
Wire Wire Line
	5050 2100 5050 2200
Wire Wire Line
	4400 2600 4550 2600
Text Notes 7200 6100 0    50   ~ 0
NOTES:\n\n1. DRAGON 64 REQUIRES -12V IN PLACE OF -5V\n   REG3 = LM7912, R5 = LINK\n\n2. LINKB IS A MODIFICATION ON SOME BOARDS\n   (R1 NORMALLY CONNECTED TO +12V WITH R1 = 1K2)\n\n3. SOME BOARDS HAVE R6 = 120K
Text Notes 7750 4200 0    50   ~ 0
MONITOR SOCKET
Text Notes 9150 2350 0    50   ~ 0
MAIN BOARD CONNECTOR
Text Notes 1150 1450 0    50   ~ 0
TRANSFORMER INPUT
Text Notes 1000 7200 0    50   ~ 0
POWER FLAGS TO KEEP ERC HAPPY
Text Label 1600 7350 0    50   ~ 0
GND
Text Notes 2700 1400 0    50   ~ 0
POWER SWITCH
Wire Wire Line
	3650 1500 3650 2650
Wire Wire Line
	3900 1500 3900 3050
Wire Wire Line
	4200 2100 4200 2250
Wire Wire Line
	3200 1850 4400 1850
Wire Wire Line
	4400 1850 4400 2300
Connection ~ 4400 2300
Wire Wire Line
	3200 2250 4200 2250
Connection ~ 4200 2250
Wire Wire Line
	4200 2250 4200 2800
Wire Wire Line
	3200 2650 3650 2650
Connection ~ 3650 2650
Wire Wire Line
	3650 2650 3650 3300
Wire Wire Line
	3200 3050 3900 3050
Connection ~ 3900 3050
Wire Wire Line
	3900 3050 3900 3300
Wire Wire Line
	1800 2050 1800 2450
Wire Wire Line
	1750 1850 2100 1850
Wire Wire Line
	2600 1850 2600 2150
Wire Wire Line
	2600 2150 2800 2150
Wire Wire Line
	1750 1950 2450 1950
Wire Wire Line
	2450 1950 2450 2950
Wire Wire Line
	2450 2950 2800 2950
Wire Wire Line
	1750 2150 2300 2150
Wire Wire Line
	2300 2150 2300 2550
Wire Wire Line
	2300 2550 2800 2550
Wire Wire Line
	1800 2050 1750 2050
Wire Wire Line
	1750 2450 1800 2450
Connection ~ 1800 2450
Wire Wire Line
	1800 2450 1800 2550
Wire Wire Line
	1750 2550 1800 2550
Connection ~ 1800 2550
Wire Wire Line
	1800 2550 1800 2650
Wire Wire Line
	1750 2250 2000 2250
Wire Wire Line
	2000 2250 2000 1750
Wire Wire Line
	1750 1750 2000 1750
Connection ~ 2000 1750
Wire Wire Line
	2000 1750 2800 1750
Wire Wire Line
	1750 2350 2100 2350
Wire Wire Line
	2100 2350 2100 1850
Connection ~ 2100 1850
Wire Wire Line
	2100 1850 2600 1850
$Comp
L ISS4PSU:Jump_Wire LINKA2
U 1 1 5FC5EEF9
P 5850 5650
F 0 "LINKA2" H 5950 5550 50  0000 R CNN
F 1 "Jump_Wire" H 5950 5550 50  0001 R CNN
F 2 "ISS4PSU:JumperPad_Drill1mm" H 5850 5650 50  0001 C CNN
F 3 "" H 5850 5650 50  0001 C CNN
	1    5850 5650
	1    0    0    -1  
$EndComp
$Comp
L ISS4PSU:Jump_Wire LINKB2
U 1 1 5FC5FBE9
P 4450 5100
F 0 "LINKB2" H 4550 5000 50  0000 R CNN
F 1 "Jump_Wire" H 4550 5000 50  0001 R CNN
F 2 "ISS4PSU:JumperPad_Drill1mm" H 4450 5100 50  0001 C CNN
F 3 "" H 4450 5100 50  0001 C CNN
	1    4450 5100
	-1   0    0    1   
$EndComp
$Comp
L ISS4PSU:Jump_Wire LINKB1
U 1 1 5FC6031A
P 4750 5100
F 0 "LINKB1" H 4850 5000 50  0000 R CNN
F 1 "Jump_Wire" H 4850 5000 50  0001 R CNN
F 2 "ISS4PSU:JumperPad_Drill1mm" H 4750 5100 50  0001 C CNN
F 3 "" H 4750 5100 50  0001 C CNN
	1    4750 5100
	1    0    0    -1  
$EndComp
Wire Wire Line
	5450 5650 5250 5650
$Comp
L ISS4PSU:Jump_Wire LINKA1
U 1 1 5FC52A62
P 5550 5650
F 0 "LINKA1" H 5650 5550 50  0000 R CNN
F 1 "Jump_Wire" H 5650 5550 50  0001 R CNN
F 2 "ISS4PSU:JumperPad_Drill1mm" H 5550 5650 50  0001 C CNN
F 3 "" H 5550 5650 50  0001 C CNN
	1    5550 5650
	-1   0    0    1   
$EndComp
$EndSCHEMATC
