(module DELTRON_671_0301 (layer F.Cu) (tedit 5FB194FC)
  (descr "3 pin right angle DIN socket")
  (fp_text reference REF** (at -8.5 -13.5) (layer F.SilkS)
    (effects (font (size 1 1) (thickness 0.15)))
  )
  (fp_text value DELTRON_671_0301 (at 0 -4.5) (layer F.Fab)
    (effects (font (size 1 1) (thickness 0.15)))
  )
  (fp_line (start -10.5 -12.4) (end 10.5 -12.4) (layer F.SilkS) (width 0.12))
  (fp_line (start -10.5 -12.4) (end -10.5 6.5) (layer F.SilkS) (width 0.12))
  (fp_line (start -10.5 6.5) (end 10.5 6.5) (layer F.SilkS) (width 0.12))
  (fp_line (start 10.5 6.5) (end 10.5 -12.4) (layer F.SilkS) (width 0.12))
  (pad 3 thru_hole circle (at 7.5 0) (size 4.5 4.5) (drill 1.5) (layers *.Cu *.Mask))
  (pad 2 thru_hole circle (at 0 0) (size 4.5 4.5) (drill 1.5) (layers *.Cu *.Mask))
  (pad 1 thru_hole circle (at -7.5 0) (size 4.5 4.5) (drill 1.5) (layers *.Cu *.Mask))
  (pad 4 thru_hole circle (at 5 -9.9) (size 3 3) (drill 1.5) (layers *.Cu *.Mask))
  (pad 4 thru_hole oval (at -5 -9.9) (size 5.5 3) (drill 1.5 (offset 1.25 0)) (layers *.Cu *.Mask))
  (pad 4 thru_hole circle (at -2.5 -9.9) (size 3 3) (drill 1.5) (layers *.Cu *.Mask))
  (pad 4 thru_hole oval (at 2.5 -9.9) (size 5.5 3) (drill 1.5 (offset 1.25 0)) (layers *.Cu *.Mask))
  (model ${KIPRJMOD}/3d/din-3-jack.step
    (offset (xyz 0 12.5 10))
    (scale (xyz 1 1 1))
    (rotate (xyz 0 0 180))
  )
)
