(module DSUB-9_Male_Horizontal_P2.77x2.54mm_EdgePinOffset9.90mm_Housed_MountingHolesOffset11.32mm_AMPHENOL_D09P13B4PA00LF (layer F.Cu) (tedit 5FABB9F1)
  (descr "9-pin D-Sub connector, horizontal/angled (90 deg), THT-mount, male, AMPHENOL D09P13B4PA00LF")
  (tags "9-pin D-Sub connector horizontal angled 90deg THT male pitch 2.77x2.54mm pin-PCB-offset 9.9mm mounting-holes-distance 25mm mounting-hole-offset 25mm")
  (fp_text reference PL9 (at 5.54 -2.8 180) (layer F.SilkS)
    (effects (font (size 1 1) (thickness 0.15)))
  )
  (fp_text value "DE9 D-SUB PLUG AMPHENOL D09P13B4PA00LF" (at 5.54 20.64 180) (layer F.Fab)
    (effects (font (size 1 1) (thickness 0.15)))
  )
  (fp_text user %R (at 5.54 16.14 180) (layer F.Fab)
    (effects (font (size 1 1) (thickness 0.15)))
  )
  (fp_line (start 21.5 -2.35) (end -10.4 -2.35) (layer F.CrtYd) (width 0.05))
  (fp_line (start 21.5 19.65) (end 21.5 -2.35) (layer F.CrtYd) (width 0.05))
  (fp_line (start -10.4 19.65) (end 21.5 19.65) (layer F.CrtYd) (width 0.05))
  (fp_line (start -10.4 -2.35) (end -10.4 19.65) (layer F.CrtYd) (width 0.05))
  (fp_line (start 0 -2.321325) (end -0.25 -2.754338) (layer F.SilkS) (width 0.12))
  (fp_line (start 0.25 -2.754338) (end 0 -2.321325) (layer F.SilkS) (width 0.12))
  (fp_line (start -0.25 -2.754338) (end 0.25 -2.754338) (layer F.SilkS) (width 0.12))
  (fp_line (start 21.025 -1.86) (end 21.025 12.68) (layer F.SilkS) (width 0.12))
  (fp_line (start -9.945 -1.86) (end 21.025 -1.86) (layer F.SilkS) (width 0.12))
  (fp_line (start -9.945 12.68) (end -9.945 -1.86) (layer F.SilkS) (width 0.12))
  (fp_line (start 19.64 12.74) (end 19.64 1.42) (layer F.Fab) (width 0.1))
  (fp_line (start 16.44 12.74) (end 16.44 1.42) (layer F.Fab) (width 0.1))
  (fp_line (start -5.36 12.74) (end -5.36 1.42) (layer F.Fab) (width 0.1))
  (fp_line (start -8.56 12.74) (end -8.56 1.42) (layer F.Fab) (width 0.1))
  (fp_line (start 20.54 13.14) (end 15.54 13.14) (layer F.Fab) (width 0.1))
  (fp_line (start -4.46 13.14) (end -9.46 13.14) (layer F.Fab) (width 0.1))
  (fp_line (start 13.69 13.14) (end -2.61 13.14) (layer F.Fab) (width 0.1))
  (fp_line (start 13.69 19.14) (end 13.69 13.14) (layer F.Fab) (width 0.1))
  (fp_line (start -2.61 19.14) (end 13.69 19.14) (layer F.Fab) (width 0.1))
  (fp_line (start -2.61 13.14) (end -2.61 19.14) (layer F.Fab) (width 0.1))
  (fp_line (start 20.965 12.74) (end -9.885 12.74) (layer F.Fab) (width 0.1))
  (fp_line (start 20.965 13.14) (end 20.965 12.74) (layer F.Fab) (width 0.1))
  (fp_line (start -9.885 13.14) (end 20.965 13.14) (layer F.Fab) (width 0.1))
  (fp_line (start -9.885 12.74) (end -9.885 13.14) (layer F.Fab) (width 0.1))
  (fp_line (start 20.965 -1.8) (end -9.885 -1.8) (layer F.Fab) (width 0.1))
  (fp_line (start 20.965 12.74) (end 20.965 -1.8) (layer F.Fab) (width 0.1))
  (fp_line (start -9.885 12.74) (end 20.965 12.74) (layer F.Fab) (width 0.1))
  (fp_line (start -9.885 -1.8) (end -9.885 12.74) (layer F.Fab) (width 0.1))
  (fp_arc (start 18.04 1.42) (end 16.44 1.42) (angle 180) (layer F.Fab) (width 0.1))
  (fp_arc (start -6.96 1.42) (end -8.56 1.42) (angle 180) (layer F.Fab) (width 0.1))
  (pad 0 thru_hole circle (at 18.04 1.27) (size 5 5) (drill 3.2) (layers *.Cu *.Mask))
  (pad 0 thru_hole circle (at -6.96 1.27) (size 5 5) (drill 3.2) (layers *.Cu *.Mask))
  (pad 9 thru_hole circle (at 9.695 2.54) (size 2 2) (drill 1) (layers *.Cu *.Mask))
  (pad 8 thru_hole circle (at 6.925 2.54) (size 2 2) (drill 1) (layers *.Cu *.Mask))
  (pad 7 thru_hole circle (at 4.155 2.54) (size 2 2) (drill 1) (layers *.Cu *.Mask))
  (pad 6 thru_hole circle (at 1.385 2.54) (size 2 2) (drill 1) (layers *.Cu *.Mask))
  (pad 5 thru_hole circle (at 11.08 0) (size 2 2) (drill 1) (layers *.Cu *.Mask))
  (pad 4 thru_hole circle (at 8.31 0) (size 2 2) (drill 1) (layers *.Cu *.Mask))
  (pad 3 thru_hole circle (at 5.54 0) (size 2 2) (drill 1) (layers *.Cu *.Mask))
  (pad 2 thru_hole circle (at 2.77 0) (size 2 2) (drill 1) (layers *.Cu *.Mask))
  (pad 1 thru_hole rect (at 0 0) (size 2 2) (drill 1) (layers *.Cu *.Mask))
  (model ${KIPRJMOD}/3d/sd09p13b4pa00lf.stp
    (offset (xyz 5.6 -12.45 1))
    (scale (xyz 1 1 1))
    (rotate (xyz 0 180 0))
  )
)
