(module Package_TO_SOT_THT:TO-3 (layer F.Cu) (tedit 5FB3C0C6)
  (descr "Transistor TO-3")
  (tags "TR TO-3 TO3 TO-204")
  (fp_text reference REG1 (at -24.3 12.95) (layer F.SilkS)
    (effects (font (size 1.2 1.2) (thickness 0.15)))
  )
  (fp_text value LM309 (at 1.7 5.45) (layer F.Fab)
    (effects (font (size 1 1) (thickness 0.15)))
  )
  (fp_line (start -4.38 -6.67) (end -16.11 1.32) (layer F.Fab) (width 0.1))
  (fp_line (start -4.38 17.57) (end -16.11 9.58) (layer F.Fab) (width 0.1))
  (fp_line (start 7.98 -6.67) (end 19.71 1.32) (layer F.Fab) (width 0.1))
  (fp_line (start 7.98 17.56) (end 19.71 9.58) (layer F.Fab) (width 0.1))
  (fp_line (start -4.3 -6.9) (end -16.2 1.1) (layer F.SilkS) (width 0.12))
  (fp_line (start -4.3 17.8) (end -16.3 9.7) (layer F.SilkS) (width 0.12))
  (fp_line (start 8.1 -6.8) (end 19.9 1.2) (layer F.SilkS) (width 0.12))
  (fp_line (start 8.1 17.7) (end 19.9 9.7) (layer F.SilkS) (width 0.12))
  (fp_line (start -4.5 -7) (end -16.4 1) (layer F.CrtYd) (width 0.05))
  (fp_line (start -4.5 17.9) (end -16.296319 9.970461) (layer F.CrtYd) (width 0.05))
  (fp_line (start 8.169214 -6.964733) (end 20 1) (layer F.CrtYd) (width 0.05))
  (fp_line (start 8.169214 17.864733) (end 19.899088 9.968625) (layer F.CrtYd) (width 0.05))
  (fp_circle (center 1.8 5.45) (end 11.8 5.45) (layer F.Fab) (width 0.1))
  (fp_circle (center -13.3 5.45) (end -15.3 5.45) (layer F.Fab) (width 0.1))
  (fp_circle (center 16.9 5.45) (end 18.9 5.45) (layer F.Fab) (width 0.1))
  (fp_arc (start 1.8 5.45) (end -4.38 -6.67) (angle 54) (layer F.Fab) (width 0.1))
  (fp_arc (start 1.8 5.45) (end -4.38 17.57) (angle -54) (layer F.Fab) (width 0.1))
  (fp_arc (start -13.3 5.45) (end -16.11 1.32) (angle -111.6) (layer F.Fab) (width 0.1))
  (fp_arc (start 16.9 5.45) (end 19.71 1.32) (angle 111.6) (layer F.Fab) (width 0.1))
  (fp_arc (start 1.8 5.45) (end -4.3 -6.9) (angle 54) (layer F.SilkS) (width 0.12))
  (fp_arc (start 1.8 5.45) (end -4.3 17.8) (angle -54) (layer F.SilkS) (width 0.12))
  (fp_arc (start -13.3 5.45) (end -16.2 1.1) (angle -111.6) (layer F.SilkS) (width 0.12))
  (fp_arc (start 16.9 5.45) (end 19.9 1.2) (angle 111.6) (layer F.SilkS) (width 0.12))
  (fp_arc (start 1.8 5.45) (end -4.5 -7) (angle 54) (layer F.CrtYd) (width 0.05))
  (fp_arc (start 1.8 5.45) (end -4.5 17.9) (angle -54) (layer F.CrtYd) (width 0.05))
  (fp_arc (start -13.3 5.45) (end -16.4 1) (angle -111.6) (layer F.CrtYd) (width 0.05))
  (fp_arc (start 16.9 5.45) (end 20 1) (angle 111.5649054) (layer F.CrtYd) (width 0.05))
  (pad 1 thru_hole rect (at 0 0) (size 2.6 2.6) (drill 1.3) (layers *.Cu *.Mask))
  (pad 2 thru_hole circle (at 0 10.92) (size 2.6 2.6) (drill 1.3) (layers *.Cu *.Mask))
  (pad 3 thru_hole circle (at -13.3 5.45) (size 6.35 6.35) (drill 4) (layers *.Cu *.Mask))
  (pad 3 thru_hole circle (at 16.9 5.45) (size 6.35 6.35) (drill 4) (layers *.Cu *.Mask))
  (model ${KISYS3DMOD}/Package_TO_SOT_THT.3dshapes/TO-3.wrl
    (offset (xyz 0 0 2.1))
    (scale (xyz 1 1 1))
    (rotate (xyz 0 0 0))
  )
)
